<?xml version="1.0" encoding="utf-8"?>
<ArrayOfCharacterModel xmlns:xsi="http://www.w3.org/2001/XMLSchema-instance" xmlns:xsd="http://www.w3.org/2001/XMLSchema">
  <CharacterModel>
    <Id>1</Id>
    <FirstName>Ned</FirstName>
    <LastName>Stark</LastName>
    <PV>10</PV>
    <Bravoury>10</Bravoury>
    <Crazyness>10</Crazyness>
    <Strength>10</Strength>
    <Type>VILLAGER</Type>
    <house>0</house>
  </CharacterModel>
  <CharacterModel>
    <Id>2</Id>
    <FirstName>Catelyn</FirstName>
    <LastName>Stark</LastName>
    <PV>10</PV>
    <Bravoury>10</Bravoury>
    <Crazyness>10</Crazyness>
    <Strength>10</Strength>
    <Type>VILLAGER</Type>
    <house>0</house>
  </CharacterModel>
  <CharacterModel>
    <Id>3</Id>
    <FirstName>Robb</FirstName>
    <LastName>Stark</LastName>
    <PV>10</PV>
    <Bravoury>10</Bravoury>
    <Crazyness>10</Crazyness>
    <Strength>10</Strength>
    <Type>VILLAGER</Type>
    <house>0</house>
  </CharacterModel>
  <CharacterModel>
    <Id>4</Id>
    <FirstName>Sansa</FirstName>
    <LastName>Stark</LastName>
    <PV>10</PV>
    <Bravoury>10</Bravoury>
    <Crazyness>10</Crazyness>
    <Strength>10</Strength>
    <Type>VILLAGER</Type>
    <house>0</house>
  </CharacterModel>
  <CharacterModel>
    <Id>5</Id>
    <FirstName>Bran</FirstName>
    <LastName>Stark</LastName>
    <PV>10</PV>
    <Bravoury>10</Bravoury>
    <Crazyness>10</Crazyness>
    <Strength>10</Strength>
    <Type>VILLAGER</Type>
    <house>0</house>
  </CharacterModel>
  <CharacterModel>
    <Id>6</Id>
    <FirstName>Arya</FirstName>
    <LastName>Stark</LastName>
    <PV>10</PV>
    <Bravoury>10</Bravoury>
    <Crazyness>10</Crazyness>
    <Strength>10</Strength>
    <Type>VILLAGER</Type>
    <house>0</house>
  </CharacterModel>
  <CharacterModel>
    <Id>7</Id>
    <FirstName>Jon</FirstName>
    <LastName>Snow</LastName>
    <PV>10</PV>
    <Bravoury>10</Bravoury>
    <Crazyness>10</Crazyness>
    <Strength>10</Strength>
    <Type>VILLAGER</Type>
    <house>0</house>
  </CharacterModel>
  <CharacterModel>
    <Id>8</Id>
    <FirstName>Lord Tywin</FirstName>
    <LastName>Lannister</LastName>
    <PV>10</PV>
    <Bravoury>10</Bravoury>
    <Crazyness>10</Crazyness>
    <Strength>10</Strength>
    <Type>VILLAGER</Type>
    <house>1</house>
  </CharacterModel>
  <CharacterModel>
    <Id>9</Id>
    <FirstName>Ser Jaime</FirstName>
    <LastName>Stark</LastName>
    <PV>10</PV>
    <Bravoury>10</Bravoury>
    <Crazyness>10</Crazyness>
    <Strength>10</Strength>
    <Type>VILLAGER</Type>
    <house>1</house>
  </CharacterModel>
  <CharacterModel>
    <Id>11</Id>
    <FirstName>Tyrion</FirstName>
    <LastName>Lannister</LastName>
    <PV>10</PV>
    <Bravoury>10</Bravoury>
    <Crazyness>10</Crazyness>
    <Strength>10</Strength>
    <Type>VILLAGER</Type>
    <house>1</house>
  </CharacterModel>
  <CharacterModel>
    <Id>14</Id>
    <FirstName>Joffrey Ier</FirstName>
    <LastName>Barathéon</LastName>
    <PV>10</PV>
    <Bravoury>10</Bravoury>
    <Crazyness>10</Crazyness>
    <Strength>10</Strength>
    <Type>VILLAGER</Type>
    <house>1</house>
  </CharacterModel>
  <CharacterModel>
    <Id>15</Id>
    <FirstName>Myrcella</FirstName>
    <LastName>Barathéon</LastName>
    <PV>10</PV>
    <Bravoury>10</Bravoury>
    <Crazyness>10</Crazyness>
    <Strength>10</Strength>
    <Type>VILLAGER</Type>
    <house>1</house>
  </CharacterModel>
  <CharacterModel>
    <Id>17</Id>
    <FirstName>Roi Robert Ier</FirstName>
    <LastName>Barathéon</LastName>
    <PV>10</PV>
    <Bravoury>10</Bravoury>
    <Crazyness>10</Crazyness>
    <Strength>10</Strength>
    <Type>VILLAGER</Type>
    <house>2</house>
  </CharacterModel>
  <CharacterModel>
    <Id>18</Id>
    <FirstName>Stannis</FirstName>
    <LastName>Barathéon</LastName>
    <PV>10</PV>
    <Bravoury>10</Bravoury>
    <Crazyness>10</Crazyness>
    <Strength>10</Strength>
    <Type>VILLAGER</Type>
    <house>2</house>
  </CharacterModel>
  <CharacterModel>
    <Id>19</Id>
    <FirstName>Mélisandre</FirstName>
    <LastName>Asshai </LastName>
    <PV>10</PV>
    <Bravoury>10</Bravoury>
    <Crazyness>10</Crazyness>
    <Strength>10</Strength>
    <Type>VILLAGER</Type>
    <house>2</house>
  </CharacterModel>
  <CharacterModel>
    <Id>20</Id>
    <FirstName>Ser Davos</FirstName>
    <LastName>Mervault</LastName>
    <PV>10</PV>
    <Bravoury>10</Bravoury>
    <Crazyness>10</Crazyness>
    <Strength>10</Strength>
    <Type>VILLAGER</Type>
    <house>2</house>
  </CharacterModel>
  <CharacterModel>
    <Id>21</Id>
    <FirstName>Selyse</FirstName>
    <LastName>Barathéon</LastName>
    <PV>10</PV>
    <Bravoury>10</Bravoury>
    <Crazyness>10</Crazyness>
    <Strength>10</Strength>
    <Type>VILLAGER</Type>
    <house>2</house>
  </CharacterModel>
  <CharacterModel>
    <Id>22</Id>
    <FirstName>Ser Renly</FirstName>
    <LastName>Barathéon</LastName>
    <PV>10</PV>
    <Bravoury>10</Bravoury>
    <Crazyness>10</Crazyness>
    <Strength>10</Strength>
    <Type>VILLAGER</Type>
    <house>2</house>
  </CharacterModel>
  <CharacterModel>
    <Id>23</Id>
    <FirstName>Brienne</FirstName>
    <LastName>Torth</LastName>
    <PV>10</PV>
    <Bravoury>10</Bravoury>
    <Crazyness>10</Crazyness>
    <Strength>10</Strength>
    <Type>VILLAGER</Type>
    <house>2</house>
  </CharacterModel>
  <CharacterModel>
    <Id>24</Id>
    <FirstName>Gendry</FirstName>
    <LastName>Barathéon</LastName>
    <PV>10</PV>
    <Bravoury>10</Bravoury>
    <Crazyness>10</Crazyness>
    <Strength>10</Strength>
    <Type>VILLAGER</Type>
    <house>2</house>
  </CharacterModel>
  <CharacterModel>
    <Id>25</Id>
    <FirstName>Lady Olenna</FirstName>
    <LastName>Tyrell</LastName>
    <PV>10</PV>
    <Bravoury>10</Bravoury>
    <Crazyness>10</Crazyness>
    <Strength>10</Strength>
    <Type>VILLAGER</Type>
    <house>3</house>
  </CharacterModel>
  <CharacterModel>
    <Id>26</Id>
    <FirstName>Lord Mace</FirstName>
    <LastName>Tyrell</LastName>
    <PV>10</PV>
    <Bravoury>10</Bravoury>
    <Crazyness>10</Crazyness>
    <Strength>10</Strength>
    <Type>VILLAGER</Type>
    <house>3</house>
  </CharacterModel>
  <CharacterModel>
    <Id>27</Id>
    <FirstName>Ser Loras</FirstName>
    <LastName>Tyrell</LastName>
    <PV>10</PV>
    <Bravoury>10</Bravoury>
    <Crazyness>10</Crazyness>
    <Strength>10</Strength>
    <Type>VILLAGER</Type>
    <house>3</house>
  </CharacterModel>
  <CharacterModel>
    <Id>28</Id>
    <FirstName>Margaery</FirstName>
    <LastName>Tyrell</LastName>
    <PV>10</PV>
    <Bravoury>10</Bravoury>
    <Crazyness>10</Crazyness>
    <Strength>10</Strength>
    <Type>VILLAGER</Type>
    <house>3</house>
  </CharacterModel>
  <CharacterModel>
    <Id>29</Id>
    <FirstName>Doran</FirstName>
    <LastName>Martell</LastName>
    <PV>10</PV>
    <Bravoury>10</Bravoury>
    <Crazyness>10</Crazyness>
    <Strength>10</Strength>
    <Type>VILLAGER</Type>
    <house>4</house>
  </CharacterModel>
  <CharacterModel>
    <Id>30</Id>
    <FirstName>Oberyn</FirstName>
    <LastName>Martell</LastName>
    <PV>10</PV>
    <Bravoury>10</Bravoury>
    <Crazyness>10</Crazyness>
    <Strength>10</Strength>
    <Type>VILLAGER</Type>
    <house>4</house>
  </CharacterModel>
  <CharacterModel>
    <Id>31</Id>
    <FirstName>Lord Edmure</FirstName>
    <LastName>Tully</LastName>
    <PV>10</PV>
    <Bravoury>10</Bravoury>
    <Crazyness>10</Crazyness>
    <Strength>10</Strength>
    <Type>VILLAGER</Type>
    <house>5</house>
  </CharacterModel>
  <CharacterModel>
    <Id>32</Id>
    <FirstName>Ser Brynden</FirstName>
    <LastName>Tully</LastName>
    <PV>10</PV>
    <Bravoury>10</Bravoury>
    <Crazyness>10</Crazyness>
    <Strength>10</Strength>
    <Type>VILLAGER</Type>
    <house>5</house>
  </CharacterModel>
  <CharacterModel>
    <Id>33</Id>
    <FirstName>Lord Walder</FirstName>
    <LastName>Tully</LastName>
    <PV>10</PV>
    <Bravoury>10</Bravoury>
    <Crazyness>10</Crazyness>
    <Strength>10</Strength>
    <Type>VILLAGER</Type>
    <house>5</house>
  </CharacterModel>
  <CharacterModel>
    <Id>34</Id>
    <FirstName>Lysa</FirstName>
    <LastName>Arryn</LastName>
    <PV>10</PV>
    <Bravoury>10</Bravoury>
    <Crazyness>10</Crazyness>
    <Strength>10</Strength>
    <Type>VILLAGER</Type>
    <house>6</house>
  </CharacterModel>
  <CharacterModel>
    <Id>35</Id>
    <FirstName>Littlefinger</FirstName>
    <LastName>Baelish</LastName>
    <PV>10</PV>
    <Bravoury>10</Bravoury>
    <Crazyness>10</Crazyness>
    <Strength>10</Strength>
    <Type>VILLAGER</Type>
    <house>6</house>
  </CharacterModel>
  <CharacterModel>
    <Id>36</Id>
    <FirstName>Lord Robin</FirstName>
    <LastName>Arryn</LastName>
    <PV>10</PV>
    <Bravoury>10</Bravoury>
    <Crazyness>10</Crazyness>
    <Strength>10</Strength>
    <Type>VILLAGER</Type>
    <house>6</house>
  </CharacterModel>
  <CharacterModel>
    <Id>37</Id>
    <FirstName>Théon</FirstName>
    <LastName>Greyjoy</LastName>
    <PV>10</PV>
    <Bravoury>10</Bravoury>
    <Crazyness>10</Crazyness>
    <Strength>10</Strength>
    <Type>VILLAGER</Type>
    <house>7</house>
  </CharacterModel>
  <CharacterModel>
    <Id>38</Id>
    <FirstName>Yara</FirstName>
    <LastName>Greyjoy</LastName>
    <PV>10</PV>
    <Bravoury>10</Bravoury>
    <Crazyness>10</Crazyness>
    <Strength>10</Strength>
    <Type>VILLAGER</Type>
    <house>7</house>
  </CharacterModel>
  <CharacterModel>
    <Id>39</Id>
    <FirstName>Lord Balon</FirstName>
    <LastName>Greyjoy</LastName>
    <PV>10</PV>
    <Bravoury>10</Bravoury>
    <Crazyness>10</Crazyness>
    <Strength>10</Strength>
    <Type>VILLAGER</Type>
    <house>7</house>
  </CharacterModel>
  <CharacterModel>
    <Id>40</Id>
    <FirstName>Lord Roose</FirstName>
    <LastName>Bolton</LastName>
    <PV>10</PV>
    <Bravoury>10</Bravoury>
    <Crazyness>10</Crazyness>
    <Strength>10</Strength>
    <Type>VILLAGER</Type>
    <house>8</house>
  </CharacterModel>
  <CharacterModel>
    <Id>41</Id>
    <FirstName>Ramsay</FirstName>
    <LastName>Bolton</LastName>
    <PV>10</PV>
    <Bravoury>10</Bravoury>
    <Crazyness>10</Crazyness>
    <Strength>10</Strength>
    <Type>VILLAGER</Type>
    <house>8</house>
  </CharacterModel>
  <CharacterModel>
    <Id>42</Id>
    <FirstName>Sandor</FirstName>
    <LastName>Clegane</LastName>
    <PV>10</PV>
    <Bravoury>10</Bravoury>
    <Crazyness>10</Crazyness>
    <Strength>10</Strength>
    <Type>VILLAGER</Type>
    <house>9</house>
  </CharacterModel>
  <CharacterModel>
    <Id>43</Id>
    <FirstName>Ser Gregor</FirstName>
    <LastName>Clegane</LastName>
    <PV>10</PV>
    <Bravoury>10</Bravoury>
    <Crazyness>10</Crazyness>
    <Strength>10</Strength>
    <Type>VILLAGER</Type>
    <house>9</house>
  </CharacterModel>
  <CharacterModel>
    <Id>44</Id>
    <FirstName>Aemon</FirstName>
    <LastName>Targaryen</LastName>
    <PV>10</PV>
    <Bravoury>10</Bravoury>
    <Crazyness>10</Crazyness>
    <Strength>10</Strength>
    <Type>VILLAGER</Type>
    <house>10</house>
  </CharacterModel>
  <CharacterModel>
    <Id>45</Id>
    <FirstName>Viserys</FirstName>
    <LastName>Targaryen</LastName>
    <PV>10</PV>
    <Bravoury>10</Bravoury>
    <Crazyness>10</Crazyness>
    <Strength>10</Strength>
    <Type>VILLAGER</Type>
    <house>10</house>
  </CharacterModel>
  <CharacterModel>
    <Id>46</Id>
    <FirstName>Daenerys</FirstName>
    <LastName>Targaryen</LastName>
    <PV>10</PV>
    <Bravoury>10</Bravoury>
    <Crazyness>10</Crazyness>
    <Strength>10</Strength>
    <Type>VILLAGER</Type>
    <house>10</house>
  </CharacterModel>
  <CharacterModel>
    <Id>48</Id>
    <FirstName>test10</FirstName>
    <LastName>test10</LastName>
    <PV>10</PV>
    <Bravoury>10</Bravoury>
    <Crazyness>10</Crazyness>
    <Strength>10</Strength>
    <Type>LEADER</Type>
    <house>1</house>
  </CharacterModel>
  <CharacterModel>
    <Id>49</Id>
    <FirstName>test20</FirstName>
    <LastName>test20</LastName>
    <PV>10</PV>
    <Bravoury>10</Bravoury>
    <Crazyness>10</Crazyness>
    <Strength>10</Strength>
    <Type>LEADER</Type>
    <house>1</house>
  </CharacterModel>
</ArrayOfCharacterModel>